[
  {
    "id":1111,
    "fecha inicial": "2017-05-10",
    "title": "All Day Event",
    "start": "2017-08-01",
    "commentary": "<b>ciudad</b> cali <br> comentario"
  },
  {
    "title": "Long Event",
    "start": "2017-05-07",
    "end": "2017-05-07",
    "commentary": " ddd dd xxx d d dd "
  },
  {
    "title": "prueba",
    "start": "2017-05-02",
    "end": "2017-05-02",
    "commentary": " ddd dd xxx d d dd "
  },
  {
    "id": "999",
    "title": "Repeating Event",
    "start": "2017-05-09T00:00:00-04:00",
    "end": "2017-05-09T00:40:00-05:00",
    "commentary": " ddd dd xxx d d dd "
  },
  {
    "id": "999",
    "title": "Repeating Event",
    "start": "2017-05-16T16:00:00-05:00",
    "commentary": " ddd dd xxx d d dd "
  },
  {
    "title": "Conference",
    "start": "2017-05-11T12:30:00-05:00",
    "end": "2017-05-11T14:30:00-05:00",
    "commentary": " ddd dd xxx d d dd "
  },
  {
    "title": "Meeting fdfsd dsfsd dsfds dsfds dsfds dsf dsf Meeting fdfsd dsfsd dsfds dsfds dsfds dsf dsf Meeting fdfsd dsfsd dsfds dsfds dsfds dsf dsf Meeting fdfsd dsfsd dsfds dsfds dsfds dsf dsf Meeting fdfsd dsfsd dsfds dsfds dsfds dsf dsf Meeting fdfsd dsfsd dsfds dsfds dsfds dsf dsf Meeting fdfsd dsfsd dsfds dsfds dsfds dsf dsf Meeting fdfsd dsfsd dsfds dsfds dsfds dsf dsf Meeting fdfsd dsfsd dsfds dsfds dsfds dsf dsf Meeting fdfsd dsfsd dsfds dsfds dsfds dsf dsf",
    "start": "2017-05-12T10:20:00-05:00",
    "end": "2017-05-12T10:50:00-05:00",
    "commentary": " ddd dd xxx d d dd "
  },
  {
    "title": "Lunch",
    "start": "2017-05-12T12:00:00-05:00",
    "commentary": " ddd dd xxx d d dd "
  },
  {
    "title": "Meeting",
    "start": "2017-05-12T14:30:00-05:00",
    "commentary": " ddd dd xxx d d dd "
  },
  {
    "title": "Happy Hour",
    "start": "2017-05-12T17:30:00-05:00",
    "commentary": " ddd dd xxx d d dd "
  },
  {
    "title": "Dinner",
    "start": "2017-05-12T20:00:00",
    "commentary": " ddd dd xxx d d dd "
  },
  {
    "title": "Birthday Party",
    "start": "2017-05-13T07:00:00-05:00",
    "commentary": " ddd dd xxx d d dd "
  },
  {
    "title": "Click for Google",
    "url": "http://google.com/",
    "start": "2017-05-28",
    "commentary": " ddd dd xxx d d dd "
  }
]
